# Time,Potential,Kinetic En.,Box-XX,Box-XY,Box-XZ,Box-YX,Box-YY,Box-YZ,Box-ZX,Box-ZY,Box-ZZ,Volume,Density,Temperature
0.0,-47342.95487993238,0.023567630578999254,4.4270000000000005,0.0,0.0,0.0,5.5844000000000005,0.0,-0.44976569151792933,0.004709769814851966,3.828669957152443,94.65291010011278,1.4983915677154678,0.00020085986624951852
0.0,-47343.27708163804,0.023125084572696616,4.427041358977588,0.0,0.0,-0.00026006272006314234,5.5840981594818855,0.0,-0.4496819613009222,0.004764339861787639,3.828669000798252,94.64865464682183,1.498458936188393,0.00019708817900513279
0.0,-47343.31351066474,0.023087919947440343,4.427077993636765,0.0,0.0,-0.00024772284227909,5.5840523806663285,0.0,-0.4496623772954646,0.004761833921792862,3.8286669821315225,94.64861203746338,1.498459610771702,0.00019677143602016595
0.0,-47343.86074600838,0.022998346785920495,4.427194871472069,0.0,0.0,-0.000255123707399421,5.5839993688742995,0.0,-0.4496123400232083,0.004747402679664892,3.828658818699292,94.65001044915932,1.4984374716991797,0.0001960080307562335
0.0,-47344.0315648559,0.022979384517871997,4.427212303991446,0.0,0.0,-0.00025691699303676083,5.583992487321697,0.0,-0.44962497350962927,0.004747889036471777,3.828676123387736,94.65069429689807,1.498426645544292,0.00019584642101734857
0.0,-47344.23925569606,0.022926780426092027,4.427218741777447,0.0,0.0,-0.00025446992361075445,5.583995574859749,0.0,-0.4496035302087454,0.004765768776111616,3.828716613678252,94.65188525075767,1.49840779164622,0.0001953980920772082
0.0,-47347.78416270925,0.02172777814920981,4.427491530533808,0.0,0.0,-0.0001503241261165172,5.5841106720487375,0.0,-0.44917219022050114,0.005699484960717093,3.8295450032272584,94.68014920476507,1.4979604863846299,0.00018517935429785624
0.0,-47349.27373079386,0.06978079157627019,4.427504528102855,0.0,0.0,-0.0001450262402628124,5.584116128374854,0.0,-0.44913741640768345,0.005742504573599334,3.829606683935429,94.68204464170908,1.4979304987596551,0.0005947208148826272
0.0,-47349.39622843355,0.1102289361245901,4.427515394705971,0.0,0.0,-0.00014070028365066898,5.584120707010019,0.0,-0.4491120057637369,0.005778663850899804,3.8296525246907107,94.68348801414189,1.4979076640327824,0.0009394482526614705
0.0,-47349.69878467805,0.10038529620975563,4.427515825891242,0.0,0.0,-0.0001405371965124702,5.584120885738102,0.0,-0.4491109090588263,0.0057800317144323255,3.8296547220828185,94.68355459347625,1.4979066107379877,0.0008555538539405435
0.0,-47350.753695013016,0.05589633033247566,4.427512930122744,0.0,0.0,-0.00014173458084263158,5.584119665035546,0.0,-0.4491186698524516,0.005770198834682772,3.8296414288276606,94.68314330940743,1.4979131173357205,0.00047638770460126204
0.0,-47351.667648628,0.0565056678614015,4.427512555154707,0.0,0.0,-0.00014186423623960102,5.584119487080959,0.0,-0.4491187732935603,0.005768873394420852,3.829642083406522,94.68314845694024,1.4979130359003534,0.0004815809061049345
0.0,-47353.215706772986,0.044899213364549315,4.427512382076466,0.0,0.0,-0.00014192338755079234,5.584119403691927,0.0,-0.4491187790306243,0.0057682478223677995,3.8296425139531953,94.68315398643603,1.4979129484222387,0.0003826625659665664
0.0,-47355.86821945803,0.07098141186839975,4.427512940021581,0.0,0.0,-0.00014160206714936536,5.584119655870363,0.0,-0.4491176048053116,0.0057705353005334465,3.829642872458982,94.68317905769015,1.4979125517883638,0.0006049533425219772
0.0,-47357.79332962322,0.06714908879780579,4.427512825665986,0.0,0.0,-0.00014148322488980006,5.584119618904126,0.0,-0.44911641934934693,0.005770654498007925,3.829642631387136,94.68317002518009,1.4979126946850387,0.0005722915992549062
0.0,-47359.02973562738,0.06686706155419359,4.427512559104668,0.0,0.0,-0.000141302319639115,5.5841195061555755,0.0,-0.44911233235839687,0.0057703461866088195,3.829646348013319,94.68325430194774,1.4979113614055584,0.0005698879654131085
0.0,-47360.427484676984,0.05405157476590163,4.427512572190887,0.0,0.0,-0.00014110833308313714,5.584119507592192,0.0,-0.44910888387128056,0.00577072325152637,3.829650293149785,94.68335214476268,1.4979098135108038,0.0004606654046813331
0.0,-47361.509450279176,0.07766521274911006,4.427512663201825,0.0,0.0,-0.00014084552465780379,5.584119556195726,0.0,-0.4491057594587485,0.005771612267871361,3.8296526544140326,94.68341329449576,1.4979088461102623,0.0006619173782759225
0.0,-47361.93237503898,0.08688533402329798,4.42751245030083,0.0,0.0,-0.00014072548538492257,5.5841194528614215,0.0,-0.4491013798916462,0.005771108563264681,3.8296582436604116,94.68354517661496,1.4979067597140188,0.0007404977141196102
0.0,-47362.628575244424,0.07079960900246524,4.427512581588779,0.0,0.0,-0.00014063928692776895,5.584119519213874,0.0,-0.449101271856568,0.005771737144983304,3.8296575825325414,94.68353276373956,1.4979069560874474,0.0006034038910736028
0.0,-47363.31868847448,0.07111010338417988,4.4275126728355,0.0,0.0,-0.00014057682678270488,5.584119564186643,0.0,-0.44910138082270135,0.005772201235597887,3.8296569283830086,94.68351930459066,1.4979071690131276,0.0006060501418188093
0.0,-47364.07203116031,0.07948765805028965,4.42751266180577,0.0,0.0,-0.00014054205203572573,5.5841195598773465,0.0,-0.449100924601899,0.005772265818076092,3.829657293073077,94.68352801215893,1.4979070312581326,0.0006774495344769868
0.0,-47364.207464108455,0.08953976462473306,4.427512487110891,0.0,0.0,-0.0001406192191631882,5.5841194838471,0.0,-0.4491015207821539,0.005771673014406346,3.8296564969377394,94.68350330364692,1.4979074221504485,0.000763120632184525
0.0,-47364.459854523295,0.08445100580287337,4.427512504377933,0.0,0.0,-0.00014060996218398872,5.584119491464444,0.0,-0.44910148535692307,0.0057717419260318705,3.829656523503997,94.68350445888339,1.497907403874432,0.0007197506628145199
0.0,-47364.90914013853,0.08119046393793047,4.427512600274611,0.0,0.0,-0.00014059095709710226,5.584119533234943,0.0,-0.4491018256533164,0.005772053509354046,3.829656155912099,94.68349812965944,1.4979075040037217,0.0006919620397411011
0.0,-47365.48263214267,0.08324652503715047,4.427512552687338,0.0,0.0,-0.0001406385648772794,5.584119506520506,0.0,-0.44910201058098514,0.005771770468264707,3.829656455941572,94.68350407688379,1.4979074099177236,0.0007094852335134172
0.0,-47365.49900280364,0.08274349550650968,4.427512541653184,0.0,0.0,-0.00014069922045894254,5.584119495240018,0.0,-0.4491023888302655,0.0057715346522186125,3.8296566866846242,94.68350935448089,1.4979073264253409,0.0007051980632819685
0.0,-47365.64431636961,0.0800430996509988,4.427512537263985,0.0,0.0,-0.00014070772372655146,5.584119492560031,0.0,-0.44910243059217364,0.005771494881535199,3.8296567177454492,94.68350998311564,1.497907316480245,0.0006821833971049624
0.0,-47365.772032520705,0.07434803741506338,4.4275125146214585,0.0,0.0,-0.00014075525143536727,5.5841194779043315,0.0,-0.44910269432213906,0.005771279370817579,3.829656902428863,94.6835138164676,1.497907255836045,0.0006336460850846359
0.0,-47365.968484274395,0.07525433429883631,4.427512545164572,0.0,0.0,-0.00014076732750857815,5.584119489606244,0.0,-0.4491029195252361,0.005771315674458349,3.8296568375829776,94.68351306482194,1.4979072677271912,0.000641370182347905
0.0,-47366.10200555927,0.07302862835961572,4.427512524729925,0.0,0.0,-0.00014081477906423295,5.584119476379723,0.0,-0.4491031934186793,0.005771107661359494,3.829656983568499,94.68351601286555,1.4979072210887037,0.0006224011563457336
0.0,-47366.21009221778,0.07454388481066687,4.42751253773113,0.0,0.0,-0.00014081849978392672,5.584119481949378,0.0,-0.44910321062888425,0.005771123085394819,3.8296570184375804,94.68351724743275,1.4979072015576684,0.0006353152338586025
0.0,-47366.35505919856,0.07363759719804308,4.42751253173492,0.0,0.0,-0.00014081463325616358,5.584119480362537,0.0,-0.4491031276201709,0.005771121799784195,3.8296570280054203,94.68351732884895,1.4979072002696523,0.0006275912156105645
0.0,-47366.57935083231,0.0749506966152697,4.427512515829316,0.0,0.0,-0.0001408112124577799,5.584119475122755,0.0,-0.4491030074987453,0.005771099535322316,3.8296570325159585,94.68351701137591,1.4979072052921223,0.0006387823691901475
0.0,-47366.77874872967,0.08494486317519111,4.427512567397512,0.0,0.0,-0.00014080780398871326,5.584119498774702,0.0,-0.4491031823626574,0.005771254157629739,3.8296568412275436,94.68351378584558,1.49790725632049,0.0007239596614840114
0.0,-47366.93065880927,0.0873783889618725,4.427512567387929,0.0,0.0,-0.00014079574298125428,5.5841194998174535,0.0,-0.4491031240761305,0.005771308326619904,3.8296567934913583,94.68351262310343,1.4979072747152438,0.0007446998738863197
0.0,-47367.11024010174,0.08401912812786937,4.4275125600276235,0.0,0.0,-0.00014079627934753935,5.584119496339102,0.0,-0.44910312098515714,0.005771298274903531,3.8296568138019356,94.68351290887678,1.4979072701942666,0.0007160698985668505
0.0,-47367.29601578325,0.08785323813322704,4.42751256130445,0.0,0.0,-0.00014079119733148283,5.584119498046478,0.0,-0.4491030716858634,0.005771326407896484,3.8296567945064868,94.68351248807603,1.497907276851397,0.0007487468713444331
0.0,-47367.46574201496,0.09053520612631324,4.427512546368487,0.0,0.0,-0.00014076784765840487,5.584119495500797,0.0,-0.44910276712425945,0.00577137096778627,3.8296567971222855,94.68351219017474,1.49790728156424,0.0007716044823618432
0.0,-47367.898163624166,0.08629472493269463,4.427512569963596,0.0,0.0,-0.0001407616586931675,5.5841195066412705,0.0,-0.44910281962100057,0.005771459013991265,3.8296567006716065,94.6835104990352,1.4979073083183203,0.0007354641294940074
0.0,-47368.20863453075,0.08794705060669773,4.427512564008328,0.0,0.0,-0.00014077453677255157,5.584119502657073,0.0,-0.4491029648395097,0.0057714329883891075,3.8296566865737836,94.68350995557357,1.4979073169159647,0.000749546406996127
0.0,-47368.451994940035,0.08744549570750736,4.427512557093386,0.0,0.0,-0.00014076824074543646,5.584119499092558,0.0,-0.44910296404452416,0.005771470707672032,3.829656684066777,94.6835096852737,1.497907321192149,0.0007452718046074619
0.0,-47368.74750196199,0.08536623043807978,4.4275125436069995,0.0,0.0,-0.00014075920138488353,5.584119493031985,0.0,-0.4491029357330568,0.005771498909026316,3.8296566535240713,94.68350853897114,1.4979073393268278,0.0007275508486329293
0.0,-47368.98983411105,0.08493110992510398,4.427512503038135,0.0,0.0,-0.000140757542629321,5.584119474729887,0.0,-0.44910287653717423,0.005771442013938102,3.829656675878154,94.68350791374466,1.4979073492180044,0.0007238424466471726
0.0,-47369.00793314673,0.08448719698121139,4.427512500199798,0.0,0.0,-0.00014075997021405627,5.584119473160825,0.0,-0.44910289740032816,0.005771431812342655,3.829656678230362,94.68350788459675,1.4979073496791289,0.0007200591094025644
0.0,-47369.07228807199,0.0847251513627461,4.42751250734376,0.0,0.0,-0.00014074779605427836,5.5841194773832665,0.0,-0.4491028504800018,0.005771498175253564,3.8296566125596754,94.68350648534111,1.497907371815564,0.0007220871234232499
0.0,-47369.083337639,0.08406404781669209,4.427512507254009,0.0,0.0,-0.00014074603045300519,5.584119477556484,0.0,-0.4491028271585479,0.005771506941922769,3.829656621934604,94.6835067181423,1.4979073681326145,0.0007164527356390228
