# Time,Potential,Kinetic En.,Box-XX,Box-XY,Box-XZ,Box-YX,Box-YY,Box-YZ,Box-ZX,Box-ZY,Box-ZZ,Volume,Density,Temperature
0.0,31403.855943493556,0.2204375072629175,3.928997320663167,0.0,0.0,-0.0009239849914998747,5.988079778569797,0.0,-0.849572683941459,-3.795708677630554e-05,3.9294188474911333,92.4480243033541,1.0678832112583831,0.0017534747445938565
0.0,31352.93004067731,5.02937681603303,3.926003069556305,0.0,0.0,0.0023146691581451065,5.955014868636461,0.0,-0.8466568624365783,-0.0018458482729225652,3.9296275804884813,91.87236120112881,1.0745744615339854,0.040006282676030396
0.0,31256.815669274823,0.02856477814873099,3.9260028086525476,0.0,0.0,0.0023147022594009214,5.955014848984802,0.0,-0.8466568129473863,-0.0018458013107012746,3.929627497883542,91.87235286128762,1.0745745590799836,0.00022721912296434364
0.0,31256.815092420933,0.02856482119006144,3.9260028059058274,0.0,0.0,0.002314705127738119,5.9550148604552255,0.0,-0.8466568137050867,-0.0018457826340066447,3.9296275171415953,91.87235342421606,1.0745745524957548,0.00022721946533750355
0.0,31256.740617577143,0.028943018278162605,3.9260028059058274,0.0,0.0,0.002314705127738119,5.9550148604552255,0.0,-0.8466568137050867,-0.0018457826340066447,3.9296275171415953,91.87235342421606,1.0745745524957548,0.00023022784195497897
0.0,31256.740286415446,0.0289430340313819,3.926002795822628,0.0,0.0,0.002314695284532101,5.9550148647241326,0.0,-0.8466568224722677,-0.0018457793807381071,3.9296275276663186,91.87235350018052,1.0745745516072454,0.00023022796726429007
0.0,31256.667874301547,0.029037497571232713,3.926002795822628,0.0,0.0,0.002314695284532101,5.9550148647241326,0.0,-0.8466568224722677,-0.0018457793807381071,3.9296275276663186,91.87235350018052,1.0745745516072454,0.00023097937946029072
0.0,31254.242471566617,1.2073437753932101,3.9204764534709042,0.0,0.0,0.0030493600464092225,5.961006614732266,0.0,-0.8454058990635444,0.0011511404407701417,3.923620546581329,91.6949575255841,1.0766534576343918,0.009603841217772318
0.0,31219.5225782503,0.05887457216387026,3.9204154327600036,0.0,0.0,0.0026409847260909242,5.960458452412455,0.0,-0.845303287232114,0.0006484176892507665,3.923837765797113,91.69017423820522,1.0767096244258514,0.00046831901099746024
0.0,31219.522408914003,0.058874422208694537,3.920415428361691,0.0,0.0,0.0026409834111630354,5.9604584560981975,0.0,-0.8453032909433579,0.0006484151779431261,3.9238377638702455,91.69017414701007,1.076709625496748,0.0004683178181758904
0.0,31219.522360121682,0.05887442141627529,3.920415428171876,0.0,0.0,0.002640982461585153,5.960458451274928,0.0,-0.8453032975829406,0.0006484159558166307,3.923837770353533,91.69017421987202,1.0767096246411365,0.0004683178118725751
0.0,31219.522593175843,0.0588744220480627,3.920415428171876,0.0,0.0,0.002640982461585153,5.960458451274928,0.0,-0.8453032975829406,0.0006484159558166307,3.923837770353533,91.69017421987202,1.0767096246411365,0.0004683178168981412
0.0,31213.40090894879,0.08690363746455096,3.919964896929545,0.0,0.0,0.0017902515684871615,5.960987618991509,0.0,-0.8461315300023968,-0.0008951531655000816,3.922186094462709,91.64918206061964,1.0771912072522358,0.0006912767949497897
0.0,31212.948577269537,0.049425061129284055,3.919945540172932,0.0,0.0,0.0017969675221342573,5.960997062124727,0.0,-0.8461402538396459,-0.0009126236275468072,3.922206958221886,91.64936220248013,1.0771890899736916,0.0003931526785813287
0.0,31212.948151540662,0.04942423671447301,3.9199455664945826,0.0,0.0,0.0017969556715784604,5.9609970705738045,0.0,-0.8461402618592941,-0.000912606603314379,3.922206975293504,91.64936334669929,1.0771890765252579,0.0003931461207565366
0.0,31212.947641817384,0.04942377252294207,3.919945586063167,0.0,0.0,0.0017969595714989305,5.960997075499191,0.0,-0.846140266068237,-0.0009126080252142187,3.922206990859854,91.64936424368052,1.0771890659827035,0.0003931424283353317
0.0,31212.947606487007,0.04942378645743575,3.919945587886062,0.0,0.0,0.0017969589994697617,5.960997075423682,0.0,-0.8461402663121219,-0.0009126085503222318,3.9222069884286865,91.6493642283308,1.0771890661631145,0.0003931425391775521
0.0,31212.94650173853,0.049430011647071,3.9199451940209795,0.0,0.0,0.0017969186646437849,5.960997021795207,0.0,-0.8461402845574971,-0.0009125963440911343,3.922206844755189,91.64935083794477,1.077189223545325,0.0003931920575782147
0.0,31212.946689433556,0.04943001244945659,3.9199451940209795,0.0,0.0,0.0017969186646437849,5.960997021795207,0.0,-0.8461402845574971,-0.0009125963440911343,3.922206844755189,91.64935083794477,1.077189223545325,0.0003931920639608076
0.0,31212.929917363694,0.04944436836417417,3.9199431440627026,0.0,0.0,0.0017960589007232914,5.960997212580386,0.0,-0.846140903283987,-0.0009125640811308351,3.922207623549783,91.64932404058402,1.077189538504857,0.0003933062583835507
0.0,31212.902378535695,0.0492275861631503,3.9199431440627026,0.0,0.0,0.0017960589007232914,5.960997212580386,0.0,-0.846140903283987,-0.0009125640811308351,3.922207623549783,91.64932404058402,1.077189538504857,0.0003915818598485979
0.0,31212.901865321302,0.04922730701077975,3.9199431551609973,0.0,0.0,0.0017960439163177177,5.960997218056262,0.0,-0.8461409041296419,-0.0009125556449809368,3.9222076393121816,91.64932475257214,1.0771895301365888,0.0003915796393252499
0.0,31212.901859531543,0.0492273040468049,3.919943155070265,0.0,0.0,0.0017960442689272799,5.96099721856646,0.0,-0.8461409043015011,-0.0009125558601964177,3.922207639304651,91.64932475811904,1.077189530071394,0.0003915796157482502
0.0,31212.9019205667,0.049227304132900176,3.919943155070265,0.0,0.0,0.0017960442689272799,5.96099721856646,0.0,-0.8461409043015011,-0.0009125558601964177,3.922207639304651,91.64932475811904,1.077189530071394,0.0003915796164330968
0.0,31212.9019205667,0.04922730403208663,3.919943155070265,0.0,0.0,0.0017960442689272799,5.96099721856646,0.0,-0.8461409043015011,-0.0009125558601964177,3.922207639304651,91.64932475811904,1.077189530071394,0.0003915796156311734
0.0,31212.90185953147,0.049227303397237285,3.9199431550702513,0.0,0.0,0.0017960442689468055,5.960997218566483,0.0,-0.8461409043015276,-0.0009125558602082244,3.9222076393046548,91.64932475811915,1.0771895300713927,0.0003915796105812511
0.0,31212.90189004905,0.049227303335999166,3.9199431550702513,0.0,0.0,0.0017960442689468055,5.960997218566483,0.0,-0.8461409043015276,-0.0009125558602082244,3.9222076393046548,91.64932475811915,1.0771895300713927,0.00039157961009413117
0.0,31212.89036266035,0.04898137476469168,3.9199431550702513,0.0,0.0,0.0017960442689468055,5.960997218566483,0.0,-0.8461409043015276,-0.0009125558602082244,3.9222076393046548,91.64932475811915,1.0771895300713927,0.0003896233661494589
0.0,31212.88996537506,0.04898145583059655,3.9199431497295274,0.0,0.0,0.0017960419501336596,5.960997210692276,0.0,-0.8461409112824386,-0.0009125511558511998,3.9222076447947067,91.64932464047178,1.077189531454147,0.00038962401098988834
0.0,31212.84180558747,0.04887136487866487,3.9199431497295274,0.0,0.0,0.0017960419501336596,5.960997210692276,0.0,-0.8461409112824386,-0.0009125511558511998,3.9222076447947067,91.64932464047178,1.077189531454147,0.0003887482902188752
0.0,31212.841724405946,0.048871365661925695,3.9199431497295274,0.0,0.0,0.0017960419501336596,5.960997210692276,0.0,-0.8461409112824386,-0.0009125511558511998,3.9222076447947067,91.64932464047178,1.077189531454147,0.00038874829644933975
0.0,31212.84131152617,0.04887080098397228,3.9199432009810797,0.0,0.0,0.0017961285563401165,5.960997312122199,0.0,-0.8461409882001951,-0.000912577228598475,3.922207622297213,91.649326872521,1.0771895052200204,0.0003887438047067936
0.0,31212.821724688594,0.04877601276812481,3.9199432009810797,0.0,0.0,0.0017961285563401165,5.960997312122199,0.0,-0.8461409882001951,-0.000912577228598475,3.922207622297213,91.649326872521,1.0771895052200204,0.0003879898098688125
0.0,31212.14232666814,0.04742363975014893,3.9199479660208416,0.0,0.0,0.001818007356208255,5.961013803411877,0.0,-0.8461299507135581,-0.00022932557182159865,3.922237873429897,91.65039870563581,1.0771769077038182,0.000377232330519064
0.0,31209.68344210699,0.036068056030071384,3.9199478846233577,0.0,0.0,0.0018180135998345196,5.961013799106266,0.0,-0.8461299346690807,-0.00022932355478806897,3.922237938901155,91.65039826618012,1.0771769128687878,0.00028690410321095773
0.0,31209.542789185085,0.035722059528189715,3.9199478846233577,0.0,0.0,0.0018180135998345196,5.961013799106266,0.0,-0.8461299346690807,-0.00022932355478806897,3.922237938901155,91.65039826618012,1.0771769128687878,0.0002841518668275019
0.0,31209.542633526573,0.03572207547849218,3.91994788461162,0.0,0.0,0.0018180135832276763,5.961013799090689,0.0,-0.8461299346920598,-0.00022932356227322052,3.922237938897672,91.6503982655848,1.0771769128757849,0.00028415199370451517
0.0,31209.542352621167,0.0357278805285081,3.9199489866771478,0.0,0.0,0.0018155394174675411,5.961013015343143,0.0,-0.8461318295243688,-0.00023279184481578524,3.922239395722057,91.6504460237683,1.0771763515690491,0.0002841981700958217
0.0,31199.484164671125,0.2433011859798291,3.9169721849920824,0.0,0.0,0.0013473959122412991,5.960680009030312,0.0,-0.8435507888676591,-0.00016305815381019196,3.9252550370424717,91.64613941951421,1.077226969874277,0.0019353443533387782
0.0,31195.89595297371,0.0472573050848015,3.9169721849920824,0.0,0.0,0.0013473959122412991,5.960680009030312,0.0,-0.8435507888676591,-0.00016305815381019196,3.9252550370424717,91.64613941951421,1.077226969874277,0.0003759092179577823
0.0,31195.8951836363,0.04725626016658465,3.916972217045973,0.0,0.0,0.001347354440458315,5.960680043681137,0.0,-0.8435508789125367,-0.00016310878827837917,3.9252550705509424,91.64614148459525,1.0772269456009038,0.00037590090613405427
0.0,31195.388431687214,0.8307642303191275,3.913053492273326,0.0,0.0,0.010230078462348795,5.955585329865339,0.0,-0.8456655234827446,-0.003721775798804494,3.9252101572446416,91.47515421077428,1.0792405207657008,0.0066083313800092015
0.0,31136.846241941366,0.3549024800711609,3.9101171603823146,0.0,0.0,0.00674572767415773,5.956075971911277,0.0,-0.849954183108223,-0.00560687108740299,3.9229810171744934,91.36212785037182,1.0805756760530292,0.0028230791725305992
0.0,31126.228257657156,0.05545988944859388,3.9101171351153243,0.0,0.0,0.00674584260109849,5.956076354275261,0.0,-0.8499542036602332,-0.005606630551662783,3.922981094519872,91.36213492648896,1.0805755923610263,0.0004411568461899219
0.0,31126.228123655863,0.055460270951236006,3.9101171478421315,0.0,0.0,0.0067458238835162165,5.956076332185179,0.0,-0.8499542255105494,-0.00560665225051223,3.922981101848244,91.36213505568152,1.0805755908330155,0.0004411598808606377
0.0,31098.44577232599,0.4416517801901321,3.9080650653791458,0.0,0.0,0.006903460596099311,5.950080996699379,0.0,-0.846657476337434,-0.0015518600955944824,3.926616378734701,91.30680308713428,1.0812304201839877,0.0035131282878491776
0.0,31089.47164282941,0.05008895350457825,3.908065189665867,0.0,0.0,0.006903470340774213,5.950080999584445,0.0,-0.8466574760620681,-0.00155187850362734,3.9266163534427654,91.30680544708179,1.0812303922381297,0.0003984336243135735
0.0,31088.495097327945,0.09044636410340925,3.9088883582081437,0.0,0.0,0.004483869743738698,5.948691319906131,0.0,-0.8473405643944395,-0.0011935466342746467,3.925540496893279,91.27969126937664,1.0815515663414557,0.000719457487815404
0.0,31086.40417265679,0.03353893996832949,3.908888357515219,0.0,0.0,0.00448387167923612,5.948691330117853,0.0,-0.8473405745850634,-0.0011935519100529039,3.925540495267512,91.27969137208576,1.0815515651244796,0.0002667861968007672
0.0,31084.884402668835,0.03651454628151177,3.90867031672031,0.0,0.0,0.004471597523047776,5.94864817891859,0.0,-0.8474249377611638,-0.001289430443014594,3.9255980070214895,91.27527484747591,1.0816038980165161,0.0002904557192191822
0.0,31084.88433192382,0.036514150254948204,3.9086703359198545,0.0,0.0,0.004471598559432543,5.9486481901004415,0.0,-0.8474249366007137,-0.0012894387154311732,3.92559799771367,91.27527525097763,1.0816038932350565,0.00029045256901763067
0.0,31081.685635742993,0.04646936946602549,3.908512116088272,0.0,0.0,0.003809279920366406,5.948249060196548,0.0,-0.8473285412379548,-0.0019008579892377234,3.925645090632503,91.26655140642737,1.0817072798984524,0.0003696415676606766
0.0,31080.38293519406,0.13824206435819097,3.9072684861302607,0.0,0.0,0.00468902032821225,5.949035750547748,0.0,-0.8481935654038828,-0.0027339640630120276,3.9278040268927046,91.299761797364,1.0813138076600015,0.0010996493813708813
0.0,31071.845041702487,1.600236915176724,3.8995366707581933,0.0,0.0,-0.001229077108387925,5.949958951377054,0.0,-0.842378635645521,-0.002062542644307644,3.927556699326975,91.12749699787145,1.0833578921833527,0.01272911788456426
0.0,31026.690851438998,0.04348977810187537,3.8995366705308037,0.0,0.0,-0.0012290203306712054,5.949958925181274,0.0,-0.8423786231501016,-0.0020625170371247293,3.927556713074108,91.1274969103143,1.083357893224265,0.00034594034607130463
0.0,31026.690786589144,0.04348977724728359,3.8995366705308037,0.0,0.0,-0.0012290203306712054,5.949958925181274,0.0,-0.8423786231501016,-0.0020625170371247293,3.927556713074108,91.1274969103143,1.083357893224265,0.00034594033927343653
0.0,31026.69083749151,0.043489777455012466,3.8995366705308037,0.0,0.0,-0.0012290203306712054,5.949958925181274,0.0,-0.8423786231501016,-0.0020625170371247293,3.927556713074108,91.1274969103143,1.083357893224265,0.0003459403409258202
0.0,31026.691047776698,0.043489777479561745,3.8995366705308037,0.0,0.0,-0.0012290203306712054,5.949958925181274,0.0,-0.8423786231501016,-0.0020625170371247293,3.927556713074108,91.1274969103143,1.083357893224265,0.000345940341121098
0.0,31026.690962124823,0.04348977755542119,3.8995366705308037,0.0,0.0,-0.0012290203306712054,5.949958925181274,0.0,-0.8423786231501016,-0.0020625170371247293,3.927556713074108,91.1274969103143,1.083357893224265,0.00034594034172452345
0.0,31026.690949727057,0.0434897768574722,3.8995366705308037,0.0,0.0,-0.0012290203306712054,5.949958925181274,0.0,-0.8423786231501016,-0.0020625170371247293,3.927556713074108,91.1274969103143,1.083357893224265,0.00034594033617267367
0.0,31026.690838677594,0.04348993543102508,3.899536678433217,0.0,0.0,-0.0012290259575372605,5.949958936157602,0.0,-0.8423786277761116,-0.002062516670633695,3.9275567142836207,91.12749729115706,1.0833578886966633,0.00034594159754930415
0.0,31025.816943858063,0.0791994660573864,3.8997799121611667,0.0,0.0,-0.0009734350432765734,5.948253955390847,0.0,-0.842335477282986,-0.0008755408731431544,3.9281493985041087,91.1208152773181,1.0834373328103137,0.0006299938029661578
0.0,31021.803661381156,0.038068982795531836,3.8995471989103963,0.0,0.0,-0.0004670545556673231,5.948308000830086,0.0,-0.8427075012411632,-0.0011182170641372193,3.9282679857776115,91.11895636955754,1.0834594358956244,0.0003028205168584414
0.0,31021.80362804877,0.03806904983866983,3.8995471991984525,0.0,0.0,-0.00046705160457669,5.9483080046869565,0.0,-0.8427075028154304,-0.0011182150700428013,3.928267987369919,91.11895647230446,1.0834594346739013,0.00030282105015447947
0.0,31021.803622773758,0.038069050158205574,3.8995471991984525,0.0,0.0,-0.00046705160457669,5.9483080046869565,0.0,-0.8427075028154304,-0.0011182150700428013,3.928267987369919,91.11895647230446,1.0834594346739013,0.0003028210526962333
0.0,31021.803527525535,0.038069050846913186,3.8995471991984525,0.0,0.0,-0.00046705160457669,5.9483080046869565,0.0,-0.8427075028154304,-0.0011182150700428013,3.928267987369919,91.11895647230446,1.0834594346739013,0.00030282105817457225
0.0,31021.803155005044,0.03814562960405222,3.8995471991984525,0.0,0.0,-0.00046705160457669,5.9483080046869565,0.0,-0.8427075028154304,-0.0011182150700428013,3.928267987369919,91.11895647230446,1.0834594346739013,0.0003034302054938419
0.0,31021.802216638156,0.03814509217769993,3.899547208175748,0.0,0.0,-0.00046704725883273243,5.948308008974903,0.0,-0.8427074062293913,-0.0011181180312232575,3.92826798328185,91.11895665293197,1.083459432526131,0.0003034259305247247
0.0,31021.802122112367,0.03814517446096223,3.899547210532679,0.0,0.0,-0.00046704494976927056,5.948308008165936,0.0,-0.8427074122666083,-0.001118122094259716,3.9282679800319436,91.1189566202293,1.0834594329149856,0.00030342658504864915
0.0,31002.337343016607,0.3302585951404289,3.8954408142058927,0.0,0.0,-7.949469204564146e-05,5.9469458311161985,0.0,-0.8410323846694234,-0.00014287783427777194,3.9288463687182453,91.01555876185722,1.0846902926330426,0.002627048876365184
0.0,30990.994845293597,0.04251646566487719,3.8954949886541,0.0,0.0,-0.0003540736754580345,5.946890751407675,0.0,-0.8415482988368458,-0.0009387235125948092,3.928540940680404,91.0089059728403,1.0847695839462221,0.0003381981120111098
0.0,30990.99461381031,0.04251647506619214,3.89549499249086,0.0,0.0,-0.00035405932867195244,5.946890752018731,0.0,-0.8415482956726749,-0.0009387239917139189,3.928540945648083,91.00890618691,1.0847695813946443,0.00033819818679406546
0.0,30990.9946062958,0.04251647720596309,3.89549499233617,0.0,0.0,-0.0003540594099025357,5.946890751905471,0.0,-0.8415482957692804,-0.0009387241639107236,3.9285409455784,91.00890617994848,1.0847695814776213,0.00033819820381491807
0.0,30969.898100053702,0.37939626399017873,3.8913787328431417,0.0,0.0,0.00042253048015257006,5.944672678767939,0.0,-0.8438818229144196,-0.004870593019062485,3.929231035919094,90.89479481977857,1.0861314254936487,0.0030179154870708064
0.0,30956.355334717777,0.040766196664929165,3.891564828200498,0.0,0.0,0.000646574075782653,5.944446398802398,0.0,-0.8427840037833458,-0.003836909227574486,3.9292481927332683,90.89607851104431,1.086116086466408,0.0003242755607821398
0.0,30956.35477770527,0.04076593517126213,3.8915648051476763,0.0,0.0,0.0006465905182955335,5.9444464044068255,0.0,-0.8427840149988073,-0.003836900141003929,3.929248172170003,90.89607758259757,1.0861160975604065,0.0003242734807253169
0.0,30937.443719212893,0.46739654486357335,3.8880899527795614,0.0,0.0,-0.0027489869792172083,5.94087132934788,0.0,-0.8421855784854749,-0.0017023206391250853,3.927381516245532,90.71718013756882,1.0882579564074684,0.0037179155548660793
0.0,30926.149462544698,0.050913902043402105,3.888089975029105,0.0,0.0,-0.002748968308647116,5.940871320868858,0.0,-0.8421855679008292,-0.0017023319414756022,3.9273815272005086,90.717180780267,1.088257948697557,0.00040499569465440687
0.0,30926.149541014212,0.05091390249490839,3.888089975029105,0.0,0.0,-0.002748968308647116,5.940871320868858,0.0,-0.8421855679008292,-0.0017023319414756022,3.9273815272005086,90.717180780267,1.088257948697557,0.00040499569824592306
0.0,30926.149449284207,0.050913916724195464,3.888089975029086,0.0,0.0,-0.0027489683089456127,5.940871320868887,0.0,-0.8421855679008518,-0.0017023319415229673,3.92738152720049,90.71718078026655,1.0882579486975623,0.0004049958114330836
0.0,30926.149573977124,0.05091391765249456,3.888089975029086,0.0,0.0,-0.0027489683089456127,5.940871320868887,0.0,-0.8421855679008518,-0.0017023319415229673,3.92738152720049,90.71718078026655,1.0882579486975623,0.0004049958188172581
0.0,30926.14947372211,0.05091391815761405,3.888089975029086,0.0,0.0,-0.0027489683089456127,5.940871320868887,0.0,-0.8421855679008518,-0.0017023319415229673,3.92738152720049,90.71718078026655,1.0882579486975623,0.0004049958228352416
0.0,30926.149449284207,0.050913917189148304,3.888089975029086,0.0,0.0,-0.0027489683089456127,5.940871320868887,0.0,-0.8421855679008518,-0.0017023319415229673,3.92738152720049,90.71718078026655,1.0882579486975623,0.0004049958151315606
0.0,30926.14964335693,0.05091391768719659,3.888089975029086,0.0,0.0,-0.0027489683089456127,5.940871320868887,0.0,-0.8421855679008518,-0.0017023319415229673,3.92738152720049,90.71718078026655,1.0882579486975623,0.00040499581909329607
0.0,30926.149642522465,0.05091391713989076,3.888089975029086,0.0,0.0,-0.0027489683089456127,5.940871320868887,0.0,-0.8421855679008518,-0.0017023319415229673,3.92738152720049,90.71718078026655,1.0882579486975623,0.00040499581473974047
0.0,30926.14950936569,0.05091391809396,3.888089975029086,0.0,0.0,-0.0027489683089456127,5.940871320868887,0.0,-0.8421855679008518,-0.0017023319415229673,3.92738152720049,90.71718078026655,1.0882579486975623,0.00040499582232890414
0.0,30926.149496393926,0.050913923172725264,3.8880899749892266,0.0,0.0,-0.0027489697464376053,5.940871321130474,0.0,-0.8421855679682476,-0.0017023321672594758,3.9273815272024586,90.71718078337646,1.0882579486602555,0.00040499586272804824
0.0,30926.14950390411,0.05091392470134494,3.8880899749892266,0.0,0.0,-0.0027489697464376053,5.940871321130474,0.0,-0.8421855679682476,-0.0017023321672594758,3.9273815272024586,90.71718078337646,1.0882579486602555,0.0004049958748874853
0.0,30926.14940484119,0.05091392380515735,3.8880899749892266,0.0,0.0,-0.0027489697464376053,5.940871321130474,0.0,-0.8421855679682476,-0.0017023321672594758,3.9273815272024586,90.71718078337646,1.0882579486602555,0.0004049958677587424
0.0,30926.14951081825,0.05091392404029874,3.8880899749892266,0.0,0.0,-0.0027489697464376053,5.940871321130474,0.0,-0.8421855679682476,-0.0017023321672594758,3.9273815272024586,90.71718078337646,1.0882579486602555,0.00040499586962917955
0.0,30926.14943535877,0.05091392333733658,3.8880899749892266,0.0,0.0,-0.0027489697464376053,5.940871321130474,0.0,-0.8421855679682476,-0.0017023321672594758,3.9273815272024586,90.71718078337646,1.0882579486602555,0.0004049958640374524
0.0,30926.149454193837,0.05091392467028204,3.8880899749892266,0.0,0.0,-0.0027489697464376053,5.940871321130474,0.0,-0.8421855679682476,-0.0017023321672594758,3.9273815272024586,90.71718078337646,1.0882579486602555,0.0004049958746403948
0.0,30926.14946319414,0.05091392429533228,3.8880899749892266,0.0,0.0,-0.0027489697464376053,5.940871321130474,0.0,-0.8421855679682476,-0.0017023321672594758,3.9273815272024586,90.71718078337646,1.0882579486602555,0.00040499587165784915
0.0,30926.149579959638,0.05091392447459208,3.8880899749892266,0.0,0.0,-0.0027489697464376053,5.940871321130474,0.0,-0.8421855679682476,-0.0017023321672594758,3.9273815272024586,90.71718078337646,1.0882579486602555,0.00040499587308377494
0.0,30926.14940698696,0.05091392417149838,3.8880899749892266,0.0,0.0,-0.0027489697464376053,5.940871321130474,0.0,-0.8421855679682476,-0.0017023321672594758,3.9273815272024586,90.71718078337646,1.0882579486602555,0.00040499587067280974
0.0,30926.14940484119,0.0509139239268912,3.8880899749892266,0.0,0.0,-0.0027489697464376053,5.940871321130474,0.0,-0.8421855679682476,-0.0017023321672594758,3.9273815272024586,90.71718078337646,1.0882579486602555,0.00040499586872707694
0.0,30926.149432855374,0.050913924408101295,3.8880899749892266,0.0,0.0,-0.0027489697464376053,5.940871321130474,0.0,-0.8421855679682476,-0.0017023321672594758,3.9273815272024586,90.71718078337646,1.0882579486602555,0.0004049958725548726
0.0,30926.149465876348,0.05091392336642638,3.8880899749892266,0.0,0.0,-0.0027489697464376053,5.940871321130474,0.0,-0.8421855679682476,-0.0017023321672594758,3.9273815272024586,90.71718078337646,1.0882579486602555,0.0004049958642688478
0.0,30926.14936121059,0.0509139246157512,3.8880899749892266,0.0,0.0,-0.0027489697464376053,5.940871321130474,0.0,-0.8421855679682476,-0.0017023321672594758,3.9273815272024586,90.71718078337646,1.0882579486602555,0.0004049958742066281
0.0,30926.149468141324,0.050913924614541695,3.8880899749892266,0.0,0.0,-0.0027489697464376053,5.940871321130474,0.0,-0.8421855679682476,-0.0017023321672594758,3.9273815272024586,90.71718078337646,1.0882579486602555,0.00040499587419700705
