# Time,Potential,Kinetic En.,Box-XX,Box-XY,Box-XZ,Box-YX,Box-YY,Box-YZ,Box-ZX,Box-ZY,Box-ZZ,Volume,Density,Temperature
0.0,135895.3652648635,0.027993528279968417,3.9984998117936104,0.0,0.0,4.321243573684336e-08,4.697498445375832,0.0,-0.6445605396164783,1.7766508634532675e-07,5.2723465849042634,99.0302046231748,1.4822534419931575,0.00021919580548092145
0.0,135882.3779418631,0.27481247122986513,3.9987830210809454,0.0,0.0,0.0016849063001730682,4.699172526454394,0.0,-0.6433950266791857,-0.0017957982384489667,5.27740134724051,99.16749731746263,1.480201332439387,0.0021518452545525573
0.0,135867.45243648885,0.01893948304943613,3.9987830050355773,0.0,0.0,0.001684922720735708,4.699172537610304,0.0,-0.6433950284667702,-0.0017957931097524848,5.277401348209686,99.16749717318379,1.4802013345929326,0.00014830053578434078
0.0,135841.31224904204,1.0148008591971283,3.999479915178786,0.0,0.0,0.0011602855686471236,4.703635232278658,0.0,-0.6478068126718453,0.0025246766438380345,5.286717941144884,99.45423824288254,1.4759336983257465,0.007946125601238311
0.0,135804.39479419315,0.034613778306689734,3.999479915178786,0.0,0.0,0.0011602855686471236,4.703635232278658,0.0,-0.6478068126718453,0.0025246766438380345,5.286717941144884,99.45423824288254,1.4759336983257465,0.0002710338954344008
0.0,135804.38347528566,0.034610164967861595,3.999479924179363,0.0,0.0,0.0011602921392806604,4.703635415741198,0.0,-0.6478068305076827,0.002524677010947038,5.28671809576006,99.45424525448784,1.4759335942712186,0.0002710056021550761
0.0,135804.38288292353,0.0346102122214995,3.9994799214233625,0.0,0.0,0.0011602968589288392,4.703635415500714,0.0,-0.6478068384117037,0.0025246721701843084,5.286718093617358,99.45424514056141,1.4759335959619244,0.0002710059721619977
0.0,135804.33438986575,0.033924182095980686,3.999439982685013,0.0,0.0,0.0012505231618367139,4.703662613664915,0.0,-0.647804358624735,0.0025123386342700512,5.286792946285869,99.45523519736864,1.475918903340658,0.0002656341974988203
0.0,135804.32639141392,0.0337978843654233,3.9994345232515722,0.0,0.0,0.001257349292050476,4.703675358514502,0.0,-0.6478018532326062,0.002510241298998251,5.286800605079706,99.45551299302272,1.4759147808556916,0.00026464525703718693
0.0,135804.32422463773,0.03379758204627376,3.999434524571027,0.0,0.0,0.0012573305754778122,4.703675359816647,0.0,-0.6478018544393643,0.002510218735117826,5.286800612566356,99.45551319420615,1.4759147778701398,0.00026464288980827485
0.0,135804.32417325853,0.033797586048957225,3.999434524571027,0.0,0.0,0.0012573305754778122,4.703675359816647,0.0,-0.6478018544393643,0.002510218735117826,5.286800612566356,99.45551319420615,1.4759147778701398,0.00026464292115021274
0.0,135804.25488645004,0.034098791321562814,3.9994509116075947,0.0,0.0,0.0015521394848092593,4.703606826792709,0.0,-0.6481486035664181,0.0032026530315006586,5.287624812695187,99.46997633906358,1.4757001767410836,0.00026700142814810085
0.0,135802.5800544232,0.043556899865682216,3.999167580779969,0.0,0.0,0.0006325834835215703,4.703469702234194,0.0,-0.6489486102136469,0.0026379495661211076,5.28805359046432,99.46809528896198,1.4757280838399311,0.00034106060710975246
0.0,135801.92644937083,0.15678356290638537,3.99907613134945,0.0,0.0,-0.0011052354811318741,4.70311469624017,0.0,-0.649745661769134,0.0014614139072275504,5.2904326793110705,99.5030594855259,1.4752095304701647,0.0012276515848138254
0.0,135798.43751899377,0.043339840682021784,3.999076130175445,0.0,0.0,-0.0011052403574518636,4.703114696114092,0.0,-0.649745671438849,0.0014614094086322705,5.290432676173176,99.5030593946296,1.4752095318177723,0.00033936098346375697
0.0,135798.43626254678,0.04333986977267078,3.999076130321145,0.0,0.0,-0.0011052416812400016,4.703114696005864,0.0,-0.6497456741100346,0.0014614025474022471,5.290432676118435,99.50305939493549,1.4752095318132374,0.00033936121125027155
0.0,135796.3883202856,0.13344802908607004,3.9986000377246937,0.0,0.0,-0.002062854539642491,4.70341155662694,0.0,-0.649518657555583,-0.0007791816375428228,5.29366499064142,99.55828371572592,1.47439124285347,0.0010449289540359276
0.0,135788.1744195308,0.04302719999085945,3.9986000377246937,0.0,0.0,-0.002062854539642491,4.70341155662694,0.0,-0.649518657555583,-0.0007791816375428228,5.29366499064142,99.55828371572592,1.47439124285347,0.00033691293449186375
0.0,135788.16253497943,0.04302790696564204,3.9985999426696424,0.0,0.0,-0.0020628275364538173,4.703411579866496,0.0,-0.6495186594078661,-0.0007792660646848802,5.293664964919056,99.55828135717354,1.4743912777820456,0.00033691847026803937
0.0,135788.030471999,0.048245185437765875,3.998625772004868,0.0,0.0,-0.00233108190695492,4.703188445074869,0.0,-0.6495033089680751,-0.0006779134382568843,5.2938891456006,99.55841729027719,1.47438926470683,0.00037777096823392797
0.0,135788.02813843047,0.04824502308719374,3.998625778079744,0.0,0.0,-0.0023310821299397815,4.703188434707875,0.0,-0.6495033140231116,-0.000677920777987222,5.293889137800826,99.55841707539413,1.474389267889095,0.00037776969699137246
0.0,135788.02446926286,0.04824705636007841,3.9986257848999234,0.0,0.0,-0.002331150494620174,4.703188389928495,0.0,-0.6495033245792647,-0.0006779010865347175,5.2938892372293145,99.55841816718252,1.4743892517204864,0.0003777856179886565
0.0,135785.551899053,0.05825797617020474,3.999424596469466,0.0,0.0,-0.002825764695514534,4.702718867503959,0.0,-0.648960617764112,-0.0014089028347640787,5.294331300022767,99.57668052750742,1.4741188487744208,0.00045617343711025645
0.0,135776.79927910274,0.025252242977600942,3.999424596497165,0.0,0.0,-0.0028257647084850485,4.7027188674883424,0.0,-0.6489606177469823,-0.0014089028318099643,5.2943313000833045,99.57668052900497,1.4741188487522514,0.0001977309070981254
0.0,135772.802262615,0.048376749184771736,3.9993869825157753,0.0,0.0,-0.002820559271228883,4.702222379348626,0.0,-0.647367038193962,-0.00010245749836038932,5.295033586752685,99.57843855400552,1.4740928236626083,0.0003788011428231624
0.0,135771.76668015518,0.015602326920500486,3.999400934735164,0.0,0.0,-0.0028231066451351997,4.702210754378708,0.0,-0.6473652175554437,-0.00010403064546667772,5.295037496998497,99.57861329693489,1.4740902368893078,0.00012216983091634876
0.0,135771.7663392166,0.015602329098268882,3.999400934735164,0.0,0.0,-0.0028231066451351997,4.702210754378708,0.0,-0.6473652175554437,-0.00010403064546667772,5.295037496998497,99.57861329693489,1.4740902368893078,0.00012216984796877936
0.0,135771.76507202187,0.015602322747693222,3.999400934735164,0.0,0.0,-0.0028231066451351997,4.702210754378708,0.0,-0.6473652175554437,-0.00010403064546667772,5.295037496998497,99.57861329693489,1.4740902368893078,0.0001221697982423021
0.0,135771.76744833984,0.015602320351120996,3.999400934735164,0.0,0.0,-0.0028231066451351997,4.702210754378708,0.0,-0.6473652175554437,-0.00010403064546667772,5.295037496998497,99.57861329693489,1.4740902368893078,0.0001221697794765869
0.0,135771.76718637743,0.01560231209695538,3.999400934735164,0.0,0.0,-0.0028231066451351997,4.702210754378708,0.0,-0.6473652175554437,-0.00010403064546667772,5.295037496998497,99.57861329693489,1.4740902368893078,0.0001221697148445597
0.0,135771.76642592505,0.015602327004815704,3.9994009345699153,0.0,0.0,-0.0028231065774351094,4.702210754661174,0.0,-0.6473652175633792,-0.00010403082434812164,5.295037497149643,99.5786133016447,1.4740902368195872,0.00012216983157655644
0.0,135771.76595141247,0.01560232225113176,3.9994009345699153,0.0,0.0,-0.0028231065774351094,4.702210754661174,0.0,-0.6473652175633792,-0.00010403082434812164,5.295037497149643,99.5786133016447,1.4740902368195872,0.00012216979435411093
0.0,135771.76586123064,0.015602325144912749,3.9994009345699153,0.0,0.0,-0.0028231065774351094,4.702210754661174,0.0,-0.6473652175633792,-0.00010403082434812164,5.295037497149643,99.5786133016447,1.4740902368195872,0.00012216981701308584
0.0,135771.7685311611,0.015602319214783805,3.9994009345699153,0.0,0.0,-0.0028231065774351094,4.702210754661174,0.0,-0.6473652175633792,-0.00010403082434812164,5.295037497149643,99.5786133016447,1.4740902368195872,0.0001221697705788037
0.0,135771.7664023216,0.015602333124045329,3.9994009345699153,0.0,0.0,-0.0028231065774351094,4.702210754661174,0.0,-0.6473652175633792,-0.00010403082434812164,5.295037497149643,99.5786133016447,1.4740902368195872,0.00012216987949154067
0.0,135771.76551194742,0.015602321989082017,3.9994009345699153,0.0,0.0,-0.0028231065774351094,4.702210754661174,0.0,-0.6473652175633792,-0.00010403082434812164,5.295037497149643,99.5786133016447,1.4740902368195872,0.00012216979230220078
0.0,135771.76811488226,0.015602319895652722,3.9994009345699153,0.0,0.0,-0.0028231065774351094,4.702210754661174,0.0,-0.6473652175633792,-0.00010403082434812164,5.295037497149643,99.5786133016447,1.4740902368195872,0.0001221697759101649
0.0,135771.76712878302,0.015602328111164106,3.9994009345699153,0.0,0.0,-0.0028231065774351094,4.702210754661174,0.0,-0.6473652175633792,-0.00010403082434812164,5.295037497149643,99.5786133016447,1.4740902368195872,0.0001221698402395205
0.0,135771.766376893,0.015602326227509318,3.9994009345151764,0.0,0.0,-0.002823106577296415,4.702210754743926,0.0,-0.6473652175303529,-0.0001040308704080143,5.295037497215371,99.57861330327029,1.474090236795523,0.0001221698254900675
0.0,135771.76619915196,0.015602325702814644,3.9994009345151764,0.0,0.0,-0.002823106577296415,4.702210754743926,0.0,-0.6473652175303529,-0.0001040308704080143,5.295037497215371,99.57861330327029,1.474090236795523,0.00012216982138158679
0.0,135771.76549426743,0.015602321493906415,3.9994009345151764,0.0,0.0,-0.002823106577296415,4.702210754743926,0.0,-0.6473652175303529,-0.0001040308704080143,5.295037497215371,99.57861330327029,1.474090236795523,0.0001221697884248612
0.0,135771.7666386766,0.015602314581429182,3.9994009345151764,0.0,0.0,-0.002823106577296415,4.702210754743926,0.0,-0.6473652175303529,-0.0001040308704080143,5.295037497215371,99.57861330327029,1.474090236795523,0.00012216973429856462
0.0,135771.7657584352,0.015602312186403183,3.9994009345151764,0.0,0.0,-0.002823106577296415,4.702210754743926,0.0,-0.6473652175303529,-0.0001040308704080143,5.295037497215371,99.57861330327029,1.474090236795523,0.00012216971554495672
0.0,135771.76607165762,0.015602316382876623,3.9994009345151764,0.0,0.0,-0.002823106577296415,4.702210754743926,0.0,-0.6473652175303529,-0.0001040308704080143,5.295037497215371,99.57861330327029,1.474090236795523,0.00012216974840431502
0.0,135771.7672442598,0.015602317295884464,3.9994009345151764,0.0,0.0,-0.002823106577296415,4.702210754743926,0.0,-0.6473652175303529,-0.0001040308704080143,5.295037497215371,99.57861330327029,1.474090236795523,0.00012216975555337772
0.0,135771.76702014633,0.015602327669188032,3.9994009345151764,0.0,0.0,-0.002823106577296415,4.702210754743926,0.0,-0.6473652175303529,-0.0001040308704080143,5.295037497215371,99.57861330327029,1.474090236795523,0.00012216983677874554
0.0,135771.767955224,0.015602310835644553,3.9994009345151764,0.0,0.0,-0.002823106577296415,4.702210754743926,0.0,-0.6473652175303529,-0.0001040308704080143,5.295037497215371,99.57861330327029,1.474090236795523,0.000122169704968204
0.0,135771.7667438192,0.015602315899385417,3.9994009345151764,0.0,0.0,-0.002823106577296415,4.702210754743926,0.0,-0.6473652175303529,-0.0001040308704080143,5.295037497215371,99.57861330327029,1.474090236795523,0.00012216974461846697
0.0,135771.76611415573,0.015602323538934383,3.9994009345151764,0.0,0.0,-0.002823106577296415,4.702210754743926,0.0,-0.6473652175303529,-0.0001040308704080143,5.295037497215371,99.57861330327029,1.474090236795523,0.00012216980443790354
0.0,135771.76684848496,0.015602314738755363,3.9994009345151764,0.0,0.0,-0.002823106577296415,4.702210754743926,0.0,-0.6473652175303529,-0.0001040308704080143,5.295037497215371,99.57861330327029,1.474090236795523,0.000122169735530465
0.0,135771.76649514862,0.015602321480013984,3.9994009345151764,0.0,0.0,-0.002823106577296415,4.702210754743926,0.0,-0.6473652175303529,-0.0001040308704080143,5.295037497215371,99.57861330327029,1.474090236795523,0.00012216978831608026
0.0,135771.7664667768,0.015602321336881438,3.9994009345151764,0.0,0.0,-0.002823106577296415,4.702210754743926,0.0,-0.6473652175303529,-0.0001040308704080143,5.295037497215371,99.57861330327029,1.474090236795523,0.0001221697871953193
0.0,135771.76689616867,0.015602318672595285,3.9994009345151764,0.0,0.0,-0.002823106577296415,4.702210754743926,0.0,-0.6473652175303529,-0.0001040308704080143,5.295037497215371,99.57861330327029,1.474090236795523,0.00012216976633334207
0.0,135771.76720015236,0.01560231938447098,3.9994009345151764,0.0,0.0,-0.002823106577296415,4.702210754743926,0.0,-0.6473652175303529,-0.0001040308704080143,5.295037497215371,99.57861330327029,1.474090236795523,0.00012216977190749353
0.0,135771.76568690964,0.015602326726560522,3.9994009345151764,0.0,0.0,-0.002823106577296415,4.702210754743926,0.0,-0.6473652175303529,-0.0001040308704080143,5.295037497215371,99.57861330327029,1.474090236795523,0.00012216982939775397
0.0,135771.76676074692,0.015602308485000169,3.9994009345151764,0.0,0.0,-0.002823106577296415,4.702210754743926,0.0,-0.6473652175303529,-0.0001040308704080143,5.295037497215371,99.57861330327029,1.474090236795523,0.0001221696865621144
0.0,135771.7664692802,0.015602318635904137,3.9994009345151764,0.0,0.0,-0.002823106577296415,4.702210754743926,0.0,-0.6473652175303529,-0.0001040308704080143,5.295037497215371,99.57861330327029,1.474090236795523,0.00012216976604604188
0.0,135771.767300765,0.015602315057122155,3.9994009345151764,0.0,0.0,-0.002823106577296415,4.702210754743926,0.0,-0.6473652175303529,-0.0001040308704080143,5.295037497215371,99.57861330327029,1.474090236795523,0.00012216973802335067
0.0,135771.76571695038,0.015602320751361443,3.9994009345151764,0.0,0.0,-0.002823106577296415,4.702210754743926,0.0,-0.6473652175303529,-0.0001040308704080143,5.295037497215371,99.57861330327029,1.474090236795523,0.00012216978261056223
0.0,135771.766687314,0.015602324508783233,3.9994009345151764,0.0,0.0,-0.002823106577296415,4.702210754743926,0.0,-0.6473652175303529,-0.0001040308704080143,5.295037497215371,99.57861330327029,1.474090236795523,0.00012216981203204449
0.0,135771.76673642822,0.015602316035821956,3.9994009345151764,0.0,0.0,-0.002823106577296415,4.702210754743926,0.0,-0.6473652175303529,-0.0001040308704080143,5.295037497215371,99.57861330327029,1.474090236795523,0.00012216974568679664
0.0,135771.76678959557,0.015602328250870138,3.9994009345151764,0.0,0.0,-0.002823106577296415,4.702210754743926,0.0,-0.6473652175303529,-0.0001040308704080143,5.295037497215371,99.57861330327029,1.474090236795523,0.00012216984133345106
0.0,135771.76766864487,0.015602325874433973,3.9994009345151764,0.0,0.0,-0.002823106577296415,4.702210754743926,0.0,-0.6473652175303529,-0.0001040308704080143,5.295037497215371,99.57861330327029,1.474090236795523,0.00012216982272540588
0.0,135771.76805172392,0.015602318722911573,3.9994009345151764,0.0,0.0,-0.002823106577296415,4.702210754743926,0.0,-0.6473652175303529,-0.0001040308704080143,5.295037497215371,99.57861330327029,1.474090236795523,0.00012216976672733027
0.0,135771.7664126558,0.015602326226413226,3.9994009345151764,0.0,0.0,-0.002823106577296415,4.702210754743926,0.0,-0.6473652175303529,-0.0001040308704080143,5.295037497215371,99.57861330327029,1.474090236795523,0.0001221698254814849
0.0,135771.76832143494,0.015602316667338193,3.9994009345151764,0.0,0.0,-0.002823106577296415,4.702210754743926,0.0,-0.6473652175303529,-0.0001040308704080143,5.295037497215371,99.57861330327029,1.474090236795523,0.00012216975063171492
0.0,135771.7673083944,0.015602326479306417,3.9994009345151764,0.0,0.0,-0.002823106577296415,4.702210754743926,0.0,-0.6473652175303529,-0.0001040308704080143,5.295037497215371,99.57861330327029,1.474090236795523,0.00012216982746169708
0.0,135771.76682678887,0.015602318669890548,3.9994009345151764,0.0,0.0,-0.002823106577296415,4.702210754743926,0.0,-0.6473652175303529,-0.0001040308704080143,5.295037497215371,99.57861330327029,1.474090236795523,0.00012216976631216337
0.0,135771.7664267225,0.015602309464938291,3.9994009345151764,0.0,0.0,-0.002823106577296415,4.702210754743926,0.0,-0.6473652175303529,-0.0001040308704080143,5.295037497215371,99.57861330327029,1.474090236795523,0.00012216969423525673
0.0,135771.76638923117,0.015602313630593853,3.9994009345151764,0.0,0.0,-0.002823106577296415,4.702210754743926,0.0,-0.6473652175303529,-0.0001040308704080143,5.295037497215371,99.57861330327029,1.474090236795523,0.0001221697268533039
0.0,135771.76749138065,0.01560231806100825,3.9994009345151764,0.0,0.0,-0.002823106577296415,4.702210754743926,0.0,-0.6473652175303529,-0.0001040308704080143,5.295037497215371,99.57861330327029,1.474090236795523,0.00012216976154447404
0.0,135771.76588980385,0.015602323664849019,3.9994009345151764,0.0,0.0,-0.002823106577296415,4.702210754743926,0.0,-0.6473652175303529,-0.0001040308704080143,5.295037497215371,99.57861330327029,1.474090236795523,0.00012216980542384428
0.0,135771.7656146688,0.015602314331628973,3.9994009345151764,0.0,0.0,-0.002823106577296415,4.702210754743926,0.0,-0.6473652175303529,-0.0001040308704080143,5.295037497215371,99.57861330327029,1.474090236795523,0.00012216973234257115
0.0,135771.7675598068,0.01560231426568714,3.9994009345151764,0.0,0.0,-0.002823106577296415,4.702210754743926,0.0,-0.6473652175303529,-0.0001040308704080143,5.295037497215371,99.57861330327029,1.474090236795523,0.00012216973182623136
0.0,135771.76599208542,0.01560231535164117,3.9994009345151764,0.0,0.0,-0.002823106577296415,4.702210754743926,0.0,-0.6473652175303529,-0.0001040308704080143,5.295037497215371,99.57861330327029,1.474090236795523,0.00012216974032950271
0.0,135771.7654976053,0.01560232711428886,3.9994009345151764,0.0,0.0,-0.002823106577296415,4.702210754743926,0.0,-0.6473652175303529,-0.0001040308704080143,5.295037497215371,99.57861330327029,1.474090236795523,0.0001221698324337566
0.0,135771.7668105764,0.015602322117116598,3.9994009345151764,0.0,0.0,-0.002823106577296415,4.702210754743926,0.0,-0.6473652175303529,-0.0001040308704080143,5.295037497215371,99.57861330327029,1.474090236795523,0.00012216979330474117
0.0,135771.76684562393,0.015602317755428323,3.9994009345151764,0.0,0.0,-0.002823106577296415,4.702210754743926,0.0,-0.6473652175303529,-0.0001040308704080143,5.295037497215371,99.57861330327029,1.474090236795523,0.00012216975915171248
0.0,135771.76636163422,0.01560232556112417,3.9994009345151764,0.0,0.0,-0.002823106577296415,4.702210754743926,0.0,-0.6473652175303529,-0.0001040308704080143,5.295037497215371,99.57861330327029,1.474090236795523,0.00012216982027211758
0.0,135771.76576177307,0.015602315141108282,3.9994009345151764,0.0,0.0,-0.002823106577296415,4.702210754743926,0.0,-0.6473652175303529,-0.0001040308704080143,5.295037497215371,99.57861330327029,1.474090236795523,0.0001221697386809815
0.0,135771.76703874298,0.015602329282897674,3.9994009345151764,0.0,0.0,-0.002823106577296415,4.702210754743926,0.0,-0.6473652175303529,-0.0001040308704080143,5.295037497215371,99.57861330327029,1.474090236795523,0.00012216984941446554
0.0,135771.7671276731,0.015602313053970139,3.9994009345151764,0.0,0.0,-0.002823106577296415,4.702210754743926,0.0,-0.6473652175303529,-0.0001040308704080143,5.295037497215371,99.57861330327029,1.474090236795523,0.00012216972233820676
0.0,135771.76654974648,0.015602319860032842,3.9994009345151764,0.0,0.0,-0.002823106577296415,4.702210754743926,0.0,-0.6473652175303529,-0.0001040308704080143,5.295037497215371,99.57861330327029,1.474090236795523,0.00012216977563125298
0.0,135771.76711360642,0.015602311236530282,3.9994009345151764,0.0,0.0,-0.002823106577296415,4.702210754743926,0.0,-0.6473652175303529,-0.0001040308704080143,5.295037497215371,99.57861330327029,1.474090236795523,0.00012216970810723205
0.0,135771.76599137016,0.015602318410595182,3.9994009345151764,0.0,0.0,-0.002823106577296415,4.702210754743926,0.0,-0.6473652175303529,-0.0001040308704080143,5.295037497215371,99.57861330327029,1.474090236795523,0.00012216976428182063
0.0,135771.76718841025,0.015602319491485836,3.9994009345151764,0.0,0.0,-0.002823106577296415,4.702210754743926,0.0,-0.6473652175303529,-0.0001040308704080143,5.295037497215371,99.57861330327029,1.474090236795523,0.00012216977274544463
0.0,135771.7674535913,0.015602307491774998,3.9994009345151764,0.0,0.0,-0.002823106577296415,4.702210754743926,0.0,-0.6473652175303529,-0.0001040308704080143,5.295037497215371,99.57861330327029,1.474090236795523,0.00012216967878493146
0.0,135771.7662703199,0.015602328216069633,3.9994009345151764,0.0,0.0,-0.002823106577296415,4.702210754743926,0.0,-0.6473652175303529,-0.0001040308704080143,5.295037497215371,99.57861330327029,1.474090236795523,0.00012216984106095505
0.0,135771.7666153116,0.015602314178960422,3.9994009345151764,0.0,0.0,-0.002823106577296415,4.702210754743926,0.0,-0.6473652175303529,-0.0001040308704080143,5.295037497215371,99.57861330327029,1.474090236795523,0.00012216973114714106
0.0,135771.76717392632,0.015602314617631556,3.9994009345151764,0.0,0.0,-0.002823106577296415,4.702210754743926,0.0,-0.6473652175303529,-0.0001040308704080143,5.295037497215371,99.57861330327029,1.474090236795523,0.00012216973458203757
0.0,135771.76580242344,0.015602324964550659,3.9994009345151764,0.0,0.0,-0.002823106577296415,4.702210754743926,0.0,-0.6473652175303529,-0.0001040308704080143,5.295037497215371,99.57861330327029,1.474090236795523,0.0001221698156008089
0.0,135771.76676497885,0.015602323367988866,3.9994009345151764,0.0,0.0,-0.002823106577296415,4.702210754743926,0.0,-0.6473652175303529,-0.0001040308704080143,5.295037497215371,99.57861330327029,1.474090236795523,0.00012216980309936055
0.0,135771.7653323812,0.015602322399895036,3.9994009345151764,0.0,0.0,-0.002823106577296415,4.702210754743926,0.0,-0.6473652175303529,-0.0001040308704080143,5.295037497215371,99.57861330327029,1.474090236795523,0.0001221697955189618
0.0,135771.76497004545,0.015599539659985978,3.999400504374469,0.0,0.0,-0.002823024117591642,4.702211414063934,0.0,-0.6473651051946495,-0.00010435522880416581,5.295037972164254,99.57862548776767,1.4740900564250015,0.00012214800602141404
0.0,135771.76490591085,0.015599537239706477,3.999400504374469,0.0,0.0,-0.002823024117591642,4.702211414063934,0.0,-0.6473651051946495,-0.00010435522880416581,5.295037972164254,99.57862548776767,1.4740900564250015,0.00012214798707006538
0.0,135771.76476455212,0.015599497458490607,3.999400516203342,0.0,0.0,-0.002823034706428405,4.702211411265047,0.0,-0.6473651067644018,-0.00010435525347134469,5.295037973847207,99.57862575466523,1.4740900524740426,0.00012214767557393782
0.0,135771.76389217854,0.0155994966273777,3.999400516203342,0.0,0.0,-0.002823034706428405,4.702211411265047,0.0,-0.6473651067644018,-0.00010435525347134469,5.295037973847207,99.57862575466523,1.4740900524740426,0.00012214766906613138
0.0,135771.76412213326,0.01559948461626104,3.999400516203342,0.0,0.0,-0.002823034706428405,4.702211411265047,0.0,-0.6473651067644018,-0.00010435525347134469,5.295037973847207,99.57862575466523,1.4740900524740426,0.00012214757501630803
0.0,135771.76527989388,0.015599489236701,3.999400516203342,0.0,0.0,-0.002823034706428405,4.702211411265047,0.0,-0.6473651067644018,-0.00010435525347134469,5.295037973847207,99.57862575466523,1.4740900524740426,0.00012214761119542228
0.0,135771.76474929333,0.015599493616011343,3.999400516203342,0.0,0.0,-0.002823034706428405,4.702211411265047,0.0,-0.6473651067644018,-0.00010435525347134469,5.295037973847207,99.57862575466523,1.4740900524740426,0.00012214764548643586
