# Time,Potential,Kinetic En.,Box-XX,Box-XY,Box-XZ,Box-YX,Box-YY,Box-YZ,Box-ZX,Box-ZY,Box-ZZ,Volume,Density,Temperature
0.0,-71969.55166419449,0.041551362088308647,3.961999941122776,0.0,0.0,-3.5926883023509076e-08,4.383500072802427,0.0,-1.1473067711053413,8.775402683975885e-07,4.775206786007164,82.93305541083497,1.4790313858727393,0.0003966254106026924
0.0,-71969.55270176718,0.04155151772495882,3.9619999549295017,0.0,0.0,-2.208954951829246e-08,4.383500076657796,0.0,-1.1473067759985784,8.521285720962777e-07,4.77520678693143,82.93305578883228,1.4790313791315204,0.0003966268962206644
0.0,-71969.55805480284,0.041552290954884524,3.9619999564452746,0.0,0.0,-5.7536241559535885e-09,4.383500088506585,0.0,-1.1473067757034179,8.619304477024504e-07,4.775206792726744,82.93305614538191,1.4790313727728004,0.0003966342770289306
0.0,-71969.55751049322,0.04155229542701441,3.9619999564452746,0.0,0.0,-5.7536241559535885e-09,4.383500088506585,0.0,-1.1473067757034179,8.619304477024504e-07,4.775206792726744,82.93305614538191,1.4790313727728004,0.00039663431971731104
0.0,-71969.60271178569,0.0421847133799317,3.96201739483164,0.0,0.0,5.210151284836497e-06,4.383642349753804,0.0,-1.1472992266951882,-7.090805606207087e-05,4.775082193192737,82.93394861957422,1.4790154565243665,0.00040267101785768105
0.0,-71969.60468383455,0.042185081799870516,3.962017401149915,0.0,0.0,5.210503737748182e-06,4.383642355943603,0.0,-1.1472992461532432,-7.090558318780448e-05,4.775082215451866,82.93394925553257,1.4790154451829047,0.0004026745345825768
0.0,-71969.60521756376,0.04218497965730457,3.9620174036967706,0.0,0.0,5.208611069389526e-06,4.383642352965831,0.0,-1.147299249437565,-7.091091152978409e-05,4.775082210934601,82.93394917405146,1.4790154466360106,0.0004026735595883739
0.0,-71969.60441337789,0.04218497782010688,3.9620174036967706,0.0,0.0,5.208611069389526e-06,4.383642352965831,0.0,-1.147299249437565,-7.091091152978409e-05,4.775082210934601,82.93394917405146,1.4790154466360106,0.00040267354205154106
0.0,-71969.68161117012,0.04219251082059639,3.9620174036967706,0.0,0.0,5.208611069389526e-06,4.383642352965831,0.0,-1.147299249437565,-7.091091152978409e-05,4.775082210934601,82.93394917405146,1.4790154466360106,0.0004027454477427643
0.0,-71970.0446221513,0.04185691911194704,3.962027569570121,0.0,0.0,-1.2644156231809687e-05,4.383641623872603,0.0,-1.1473301873267816,-9.964893284632755e-05,4.775065077829651,82.93385060532663,1.4790172044787435,0.0003995420822560921
0.0,-71970.04690471641,0.04185822117099952,3.9620275869127934,0.0,0.0,-1.2674771489540815e-05,4.383641619422292,0.0,-1.1473301338903605,-9.963474697545723e-05,4.775065148671479,82.93385211453992,1.4790171775638907,0.0003995545109631275
0.0,-71970.04727992606,0.04185820896843975,3.962027581612177,0.0,0.0,-1.265511695702228e-05,4.383641621564407,0.0,-1.1473301359798638,-9.963823200934873e-05,4.775065150039298,82.93385206786945,1.4790171783961974,0.00039955439448450836
0.0,-71970.04730889392,0.04185821181917494,3.962027581612177,0.0,0.0,-1.265511695702228e-05,4.383641621564407,0.0,-1.1473301359798638,-9.963823200934873e-05,4.775065150039298,82.93385206786945,1.4790171783961974,0.0003995544216959873
0.0,-71970.04624697757,0.041858205775381845,3.962027581612177,0.0,0.0,-1.265511695702228e-05,4.383641621564407,0.0,-1.1473301359798638,-9.963823200934873e-05,4.775065150039298,82.93385206786945,1.4790171783961974,0.0003995543640054136
0.0,-71970.04733445002,0.041857953200173395,3.962027574968,0.0,0.0,-1.2651011864325931e-05,4.383641599809954,0.0,-1.1473301244855578,-9.963503559364751e-05,4.775065160585195,82.93385170038346,1.4790171849498315,0.0003995519530677036
0.0,-71970.05108380003,0.04185955831217787,3.962027584269487,0.0,0.0,-1.2594227236901357e-05,4.38364166303548,0.0,-1.1473301008225283,-9.964414217963534e-05,4.775065179390352,82.93385341785377,1.479017154320987,0.00039956727454396436
0.0,-71987.93481220715,0.6130272712988876,3.9614227855246247,0.0,0.0,0.00017408308910787498,4.383502670776927,0.0,-1.1482928265893375,-0.0014194574466425867,4.766245731654143,82.76541558718938,1.4820271366816362,0.005851605843216932
0.0,-72027.9224697173,0.02764121640656026,3.9614227855246247,0.0,0.0,0.00017408308910787498,4.383502670776927,0.0,-1.1482928265893375,-0.0014194574466425867,4.766245731654143,82.76541558718938,1.4820271366816362,0.0002638471582113206
0.0,-72028.06471842134,0.02480691183187822,3.961485241079648,0.0,0.0,0.00020610507970255274,4.383562200629308,0.0,-1.1486293979874043,-0.0018491376165546524,4.765862863947328,82.76119581209454,1.482102701336543,0.00023679251645692529
0.0,-72028.1335165291,0.023415828777462403,3.9614984834207356,0.0,0.0,0.00017413724243301213,4.383580302817902,0.0,-1.1485186563821077,-0.0015970150586936856,4.765910041163402,82.7626334906042,1.4820769555728701,0.0002235140374875111
0.0,-72028.13362930108,0.023415830498961104,3.9614984834207356,0.0,0.0,0.00017413724243301213,4.383580302817902,0.0,-1.1485186563821077,-0.0015970150586936856,4.765910041163402,82.7626334906042,1.4820769555728701,0.00022351405391994784
0.0,-72028.13393280793,0.02341583228908732,3.9614984834207356,0.0,0.0,0.00017413724243301213,4.383580302817902,0.0,-1.1485186563821077,-0.0015970150586936856,4.765910041163402,82.7626334906042,1.4820769555728701,0.0002235140710074634
0.0,-72028.62492564249,0.024629084811864273,3.9613117904633084,0.0,0.0,0.0001809600628745633,4.383646922317856,0.0,-1.1486260928491812,-0.0017125330192204005,4.7659309625727175,82.76035417480686,1.4821177736850133,0.00023509508197380567
0.0,-72029.69372779511,0.02659246272546883,3.9613117904633084,0.0,0.0,0.0001809600628745633,4.383646922317856,0.0,-1.1486260928491812,-0.0017125330192204005,4.7659309625727175,82.76035417480686,1.4821177736850133,0.00025383635860143215
0.0,-72029.69267839573,0.0265924534340558,3.9613117904633084,0.0,0.0,0.0001809600628745633,4.383646922317856,0.0,-1.1486260928491812,-0.0017125330192204005,4.7659309625727175,82.76035417480686,1.4821177736850133,0.00025383626991094593
0.0,-72029.70576583399,0.026589748732203645,3.9613118671666006,0.0,0.0,0.00018099395391257098,4.383647187324238,0.0,-1.14862632391438,-0.0017122503914390361,4.765931118735221,82.76036349221037,1.4821176068238642,0.0002538104523822596
0.0,-72029.70656725102,0.02658984411495553,3.9613118639237377,0.0,0.0,0.00018099140010616467,4.383647192867327,0.0,-1.1486263247980315,-0.0017122474978707718,4.765931126640909,82.76036366639204,1.4821176037045243,0.00025381136285116437
0.0,-72030.4513797807,0.027578891276622542,3.961193641977396,0.0,0.0,0.00012554240475671626,4.383958008558527,0.0,-1.1486718361719197,-0.0020922922123846545,4.765700541690595,82.75975730374618,1.4821284628561326,0.0002632522383576735
0.0,-72030.4515876817,0.027578890778881992,3.961193641977396,0.0,0.0,0.00012554240475671626,4.383958008558527,0.0,-1.1486718361719197,-0.0020922922123846545,4.765700541690595,82.75975730374618,1.4821284628561326,0.00026325223360652844
0.0,-72036.37681907816,0.027536192469744595,3.9603399779786814,0.0,0.0,0.0006803297164282306,4.384767502878347,0.0,-1.1483030586963758,-0.0009517564941783277,4.76576376856877,82.75829819160819,1.4821545942734948,0.0002628446600988858
0.0,-72036.37841678839,0.027536123595914033,3.960339977307366,0.0,0.0,0.0006803251865521029,4.384767500199754,0.0,-1.1483030561723573,-0.0009517648068710211,4.765763766995126,82.75829809969737,1.4821545959195659,0.0002628440026689015
0.0,-72036.38595417065,0.02753938062322831,3.960340130059755,0.0,0.0,0.0006803969499683615,4.384767680353655,0.0,-1.1483033112123022,-0.000952093606602666,4.765763900481301,82.75830700997156,1.4821544363415813,0.0002628750923788639
0.0,-72036.3863153513,0.027539319739869044,3.9603401345454037,0.0,0.0,0.0006803926895549831,4.3847676840940615,0.0,-1.1483033144347174,-0.0009520979468557709,4.765763894941405,82.75830707810248,1.482154435121395,0.0002628745112213241
0.0,-72067.54576047203,0.09011224658371743,3.956069518906247,0.0,0.0,-0.0010734159784562913,4.38525647569796,0.0,-1.1467615149800698,0.00015524642541809303,4.767251688484903,82.7040913498904,1.483126044635644,0.0008601596916519476
0.0,-72097.35647848746,0.24816980509619374,3.954684578582046,0.0,0.0,-0.00014041166452314122,4.387146645823735,0.0,-1.14490287132049,-0.002896370846948016,4.761654490796374,82.61366349016167,1.4847494554403267,0.002368886262651868
0.0,-72105.94883295172,0.04239958315166074,3.954684605059742,0.0,0.0,-0.00014041576144358247,4.387146663405608,0.0,-1.144902873518735,-0.0028963703958673807,4.7616545056036665,82.61366463126751,1.4847494349321422,0.0004047220411492163
0.0,-72105.94961769378,0.04239935359584798,3.954684607603694,0.0,0.0,-0.00014042131566481224,4.387146650358004,0.0,-1.1449028866180164,-0.0028963840468406114,4.761654517532115,82.61366464566947,1.4847494346733072,0.00040471984994142155
0.0,-72105.9506514833,0.04239928433083902,3.9546845780304634,0.0,0.0,-0.0001404162367384293,4.387146659657629,0.0,-1.1449028912378634,-0.0028963818001754016,4.761654523887196,82.61366431326145,1.484749440647411,0.00040471918877747314
0.0,-72105.94989843822,0.042399275209631444,3.9546845780304634,0.0,0.0,-0.0001404162367384293,4.387146659657629,0.0,-1.1449028912378634,-0.0028963818001754016,4.761654523887196,82.61366431326145,1.484749440647411,0.00040471910171167034
0.0,-72105.95149427888,0.04239948375068776,3.9546845928581082,0.0,0.0,-0.00014042516324687472,4.3871466637204435,0.0,-1.1449028808050623,-0.0028963797412678055,4.761654518160491,82.61366460016121,1.4847494354911905,0.00040472109232468346
0.0,-72105.95099574563,0.04239947537862747,3.9546845928581082,0.0,0.0,-0.00014042516324687472,4.3871466637204435,0.0,-1.1449028808050623,-0.0028963797412678055,4.761654518160491,82.61366460016121,1.4847494354911905,0.00040472101240980986
0.0,-72105.95112949845,0.042399473543501154,3.9546845928581082,0.0,0.0,-0.00014042516324687472,4.3871466637204435,0.0,-1.1449028808050623,-0.0028963797412678055,4.761654518160491,82.61366460016121,1.4847494354911905,0.00040472099489274925
0.0,-72105.9510235214,0.0423994824592443,3.9546845928581082,0.0,0.0,-0.00014042516324687472,4.3871466637204435,0.0,-1.1449028808050623,-0.0028963797412678055,4.761654518160491,82.61366460016121,1.4847494354911905,0.00040472107999730677
0.0,-72105.95547967707,0.04268555906367978,3.9546845928581082,0.0,0.0,-0.00014042516324687472,4.3871466637204435,0.0,-1.1449028808050623,-0.0028963797412678055,4.761654518160491,82.61366460016121,1.4847494354911905,0.0004074518027701704
0.0,-72105.95637040888,0.04268555727897473,3.9546845928581082,0.0,0.0,-0.00014042516324687472,4.3871466637204435,0.0,-1.1449028808050623,-0.0028963797412678055,4.761654518160491,82.61366460016121,1.4847494354911905,0.0004074517857344022
0.0,-72105.96024800227,0.042685936759899464,3.9546845794156846,0.0,0.0,-0.00014044177057595056,4.387146686231217,0.0,-1.1449028755962194,-0.0028963958006089047,4.761654523127374,82.61366482941912,1.4847494313709215,0.00040745540804110945
0.0,-72105.96068478511,0.042685934201918074,3.9546845794156846,0.0,0.0,-0.00014044177057595056,4.387146686231217,0.0,-1.1449028755962194,-0.0028963958006089047,4.761654523127374,82.61366482941912,1.4847494313709215,0.00040745538362408994
0.0,-72105.95988465236,0.04268593749461477,3.9546845794156846,0.0,0.0,-0.00014044177057595056,4.387146686231217,0.0,-1.1449028755962194,-0.0028963958006089047,4.761654523127374,82.61366482941912,1.4847494313709215,0.0004074554150542794
0.0,-72105.95985794948,0.0426859326203719,3.9546845794156846,0.0,0.0,-0.00014044177057595056,4.387146686231217,0.0,-1.1449028755962194,-0.0028963958006089047,4.761654523127374,82.61366482941912,1.4847494313709215,0.0004074553685275596
0.0,-72105.96087181811,0.042686408440061115,3.954684591471232,0.0,0.0,-0.0001404358548362197,4.387146700347514,0.0,-1.1449028731578226,-0.002896419560417218,4.7616545207635745,82.61366530607076,1.4847494228044422,0.00040745991042871814
0.0,-72105.96096804025,0.042686406946580845,3.9546845913483466,0.0,0.0,-0.00014043597454526508,4.387146700313205,0.0,-1.144902873056898,-0.00289641949317115,4.761654520843451,82.61366530424347,1.4847494228372828,0.00040745989617281417
0.0,-72106.34117393376,0.04169388306370195,3.954627069614317,0.0,0.0,-0.00019759406793860122,4.387140333364151,0.0,-1.1448651818234081,-0.0028762977957177208,4.761687977753937,82.61292423832845,1.4847627415425548,0.0003979858338847193
0.0,-72106.34050290467,0.0416938815313962,3.954627069614317,0.0,0.0,-0.00019759406793860122,4.387140333364151,0.0,-1.1448651818234081,-0.0028762977957177208,4.761687977753937,82.61292423832845,1.4847627415425548,0.00039798581925820967
0.0,-72106.34281340451,0.04169531800404319,3.954627108308429,0.0,0.0,-0.00019763311732895388,4.387140358244406,0.0,-1.1448651930929343,-0.0028763508447108817,4.761687958188154,82.61292517571192,1.4847627246954083,0.000397999531000131
0.0,-72106.34413073241,0.041695165613918124,3.954627100745155,0.0,0.0,-0.00019762936616494196,4.387140357458675,0.0,-1.1448651894064146,-0.0028763505166046195,4.761687964022403,82.61292510413912,1.4847627259817524,0.0003979980763716209
0.0,-72106.41538972338,0.04434736420282345,3.954627100745155,0.0,0.0,-0.00019762936616494196,4.387140357458675,0.0,-1.1448651894064146,-0.0028763505166046195,4.761687964022403,82.61292510413912,1.4847627259817524,0.000423314439096116
0.0,-72108.86700222273,0.06421558891240178,3.9551103168184882,0.0,0.0,0.00032571185758615916,4.388669220629091,0.0,-1.1439975321531135,-0.0028812427957124733,4.7599698071923715,82.62198946246332,1.484599834462651,0.000612965088011915
0.0,-72114.15462045377,0.01929201827093624,3.9551102761641563,0.0,0.0,0.0003257242047727374,4.3886692386492285,0.0,-1.1439975473539852,-0.002881237288992602,4.759969779552334,82.62198847268118,1.4845998522476307,0.00018415051356926993
0.0,-72114.15580809914,0.019292034278084624,3.9551102782287946,0.0,0.0,0.00032572369542191074,4.388669242370213,0.0,-1.143997539705004,-0.0028812365958329456,4.759969779768461,82.62198858961483,1.4845998501464992,0.00018415066636430437
0.0,-72114.15598476946,0.019292061674046852,3.955110283560811,0.0,0.0,0.0003257226981195345,4.38866924260454,0.0,-1.143997535399519,-0.002881236356987333,4.759969780193661,82.62198871279226,1.4845998479331755,0.00018415092787040722
0.0,-72117.99696680512,0.04328852258616319,3.9552062281368014,0.0,0.0,0.00040824481130572485,4.386745831309515,0.0,-1.1442408405035898,-0.0030260771544544486,4.759819900819634,82.5851810942377,1.4852615233595035,0.00041320734585381625
0.0,-72119.24264790975,0.05920774930826679,3.955707180645405,0.0,0.0,0.00014760482578476966,4.386350685287091,0.0,-1.1438590880111277,-0.0027348129519581205,4.759444746561714,82.58169170803785,1.4853242812293843,0.0005651631306416334
0.0,-72124.06004444076,0.05925490013078505,3.9549095248411987,0.0,0.0,0.002482470936707725,4.385750781318335,0.0,-1.1419898362225227,-0.000818541819892321,4.759786049499361,82.55966725941572,1.485720521299204,0.0005656132052818297
0.0,-72134.93259100622,0.09219297124629539,3.953992901870487,0.0,0.0,-0.0006377243639674999,4.384392691036538,0.0,-1.1422123307108127,-0.0014641493609092145,4.760223538350401,82.52255730681354,1.4863886418704133,0.0008800210928712914
0.0,-72135.9133366989,0.031160348859320612,3.9539929194530687,0.0,0.0,-0.0006376421724604077,4.384392781528107,0.0,-1.1422124267886908,-0.0014640861309495124,4.7602235517328815,82.52255960899329,1.4863886004037665,0.0002974387731161438
0.0,-72135.91465431318,0.031160117700628955,3.953992945309442,0.0,0.0,-0.0006376576346255339,4.384392769349407,0.0,-1.1422124343280382,-0.0014641117294164582,4.760223568664757,82.52256021293607,1.486388589525606,0.00029743656660818874
0.0,-72136.30393330788,0.028683624058520218,3.9541054405453737,0.0,0.0,-0.0006734889096998114,4.384649642682636,0.0,-1.1423703199041912,-0.001324370190779178,4.760136624848402,82.52823566853868,1.486286370783381,0.00027379738227606524
0.0,-72136.3062694034,0.02868373387740352,3.9541054465637253,0.0,0.0,-0.0006734872532944967,4.3846496322033115,0.0,-1.1423703093630717,-0.0013243581245055039,4.760136636926316,82.52823580630744,1.4862863683022445,0.0002737984305439798
0.0,-72136.75609697701,0.027316439923616712,3.9540739966338108,0.0,0.0,-0.0005266432477505777,4.384685644800787,0.0,-1.1425979863451352,-0.0013966285020091743,4.76018099632031,82.52902630008066,1.4862721320974563,0.00026074702865051786
0.0,-72136.75818206833,0.02731668796968946,3.9540739720923903,0.0,0.0,-0.0005266367579684559,4.384685635236172,0.0,-1.1425979832694513,-0.0013966256921970623,4.760180994614199,82.52902557824896,1.486272145096984,0.00026074939635570266
0.0,-72136.77323929119,0.026815222995933804,3.9540739720923903,0.0,0.0,-0.0005266367579684559,4.384685635236172,0.0,-1.1425979832694513,-0.0013966256921970623,4.760180994614199,82.52902557824896,1.486272145096984,0.0002559627000568907
0.0,-72136.78650023008,0.026815067592683862,3.9540740173979114,0.0,0.0,-0.0005266607552765597,4.384685612986401,0.0,-1.142598026945419,-0.0013965659360056632,4.7601811314082765,82.5290284767233,1.4862720928981181,0.00025596121666682307
0.0,-72205.85280081739,0.1858979156505854,3.9424261539742957,0.0,0.0,0.00022705988832111396,4.385774786960255,0.0,-1.1409567990741116,-0.0032039858015738484,4.760548007551541,82.31269912929123,1.4901782249453508,0.0017744746121293607
0.0,-72209.07986020054,0.03201229567334686,3.9424252692940325,0.0,0.0,0.0002268293681865398,4.3857750547149,0.0,-1.1409568344095562,-0.003203868780149051,4.760548264917799,82.31269013358678,1.4901783878024129,0.0003055709675363092
0.0,-72209.08454690009,0.03201087588814342,3.942425337639288,0.0,0.0,0.00022682922888462613,4.3857751110661685,0.0,-1.1409567931054456,-0.003203913296704381,4.760548271436634,82.31269273086755,1.4901783407815763,0.0003055574150831289
0.0,-72209.08527050048,0.03201088106311435,3.942425337639288,0.0,0.0,0.00022682922888462613,4.3857751110661685,0.0,-1.1409567931054456,-0.003203913296704381,4.760548271436634,82.31269273086755,1.4901783407815763,0.00030555746448042583
0.0,-72211.68719268325,0.0673615875715536,3.9415994058503054,0.0,0.0,-0.00028490159285922433,4.385583425675488,0.0,-1.1416716724257916,-0.003439124061841135,4.75976368309835,82.27828897445607,1.490801442371132,0.0006429949822736172
0.0,-72214.66672228888,0.020739914723888832,3.941599406835077,0.0,0.0,-0.0002849049754413701,4.385583425521091,0.0,-1.1416716719145532,-0.003439119805701427,4.759763684759359,82.27828902082842,1.4908014415309108,0.0001979713005736047
0.0,-72214.67307268233,0.02074488298860753,3.9416006699586186,0.0,0.0,-0.00028627680317634463,4.385582937598848,0.0,-1.1416697604220074,-0.0034396425198204906,4.759764771485226,82.27832501912637,1.4908007892775446,0.000198018724771874
0.0,-72215.47303446852,0.020990275674589016,3.942008334204813,0.0,0.0,-8.246607782683367e-05,4.385482473049661,0.0,-1.1419232407907574,-0.003299859368276326,4.759262346609604,82.2762639983784,1.4908381338433825,0.00020036110225229097
0.0,-72215.47237661206,0.0209902695701192,3.942008334204813,0.0,0.0,-8.246607782683367e-05,4.385482473049661,0.0,-1.1419232407907574,-0.003299859368276326,4.759262346609604,82.2762639983784,1.4908381338433825,0.00020036104398253214
0.0,-72215.49949794369,0.02099148624159395,3.94200786363454,0.0,0.0,-8.020452046989966e-05,4.385484634267937,0.0,-1.141923154985089,-0.0032993842514373304,4.759265115419,82.27634258962877,1.490836709778708,0.00020037265762884812
0.0,-72215.49780815201,0.02099147812737134,3.94200786363454,0.0,0.0,-8.020452046989966e-05,4.385484634267937,0.0,-1.141923154985089,-0.0032993842514373304,4.759265115419,82.27634258962877,1.490836709778708,0.00020037258017514476
0.0,-72215.49851053314,0.02099148476764625,3.94200786363454,0.0,0.0,-8.020452046989966e-05,4.385484634267937,0.0,-1.141923154985089,-0.0032993842514373304,4.759265115419,82.27634258962877,1.490836709778708,0.0002003726435593909
0.0,-72215.49871581154,0.02099148268232429,3.94200786363454,0.0,0.0,-8.020452046989966e-05,4.385484634267937,0.0,-1.141923154985089,-0.0032993842514373304,4.759265115419,82.27634258962877,1.490836709778708,0.00020037262365410653
0.0,-72215.49852817612,0.020991478657067734,3.94200786363454,0.0,0.0,-8.020452046989966e-05,4.385484634267937,0.0,-1.141923154985089,-0.0032993842514373304,4.759265115419,82.27634258962877,1.490836709778708,0.00020037258523132197
0.0,-72215.49788778381,0.020991474965953442,3.94200786363454,0.0,0.0,-8.020452046989966e-05,4.385484634267937,0.0,-1.141923154985089,-0.0032993842514373304,4.759265115419,82.27634258962877,1.490836709778708,0.0002003725499980673
0.0,-72215.49734705048,0.020991482629047584,3.94200786363454,0.0,0.0,-8.020452046989966e-05,4.385484634267937,0.0,-1.141923154985089,-0.0032993842514373304,4.759265115419,82.27634258962877,1.490836709778708,0.0002003726231455577
0.0,-72215.49768298226,0.02099148102620813,3.94200786363454,0.0,0.0,-8.020452046989966e-05,4.385484634267937,0.0,-1.141923154985089,-0.0032993842514373304,4.759265115419,82.27634258962877,1.490836709778708,0.00020037260784577392
0.0,-72215.49767177658,0.020991476494505796,3.94200786363454,0.0,0.0,-8.020452046989966e-05,4.385484634267937,0.0,-1.141923154985089,-0.0032993842514373304,4.759265115419,82.27634258962877,1.490836709778708,0.00020037256458874914
0.0,-72215.49840300636,0.02099148165965333,3.94200786363454,0.0,0.0,-8.020452046989966e-05,4.385484634267937,0.0,-1.141923154985089,-0.0032993842514373304,4.759265115419,82.27634258962877,1.490836709778708,0.0002003726138922776
0.0,-72215.49824970322,0.020991483641998654,3.94200786363454,0.0,0.0,-8.020452046989966e-05,4.385484634267937,0.0,-1.141923154985089,-0.0032993842514373304,4.759265115419,82.27634258962877,1.490836709778708,0.0002003726328146062
0.0,-72215.49897664147,0.02099148053394326,3.94200786363454,0.0,0.0,-8.020452046989966e-05,4.385484634267937,0.0,-1.141923154985089,-0.0032993842514373304,4.759265115419,82.27634258962877,1.490836709778708,0.00020037260314689653
0.0,-72215.4975513752,0.020991488407023338,3.94200786363454,0.0,0.0,-8.020452046989966e-05,4.385484634267937,0.0,-1.141923154985089,-0.0032993842514373304,4.759265115419,82.27634258962877,1.490836709778708,0.00020037267829879196
0.0,-72215.49767535286,0.020991479647534995,3.94200786363454,0.0,0.0,-8.020452046989966e-05,4.385484634267937,0.0,-1.141923154985089,-0.0032993842514373304,4.759265115419,82.27634258962877,1.490836709778708,0.0002003725946857529
0.0,-72215.49768298226,0.020991481347588537,3.94200786363454,0.0,0.0,-8.020452046989966e-05,4.385484634267937,0.0,-1.141923154985089,-0.0032993842514373304,4.759265115419,82.27634258962877,1.490836709778708,0.0002003726109134865
0.0,-72215.4979786213,0.020991481319688674,3.94200786363454,0.0,0.0,-8.020452046989966e-05,4.385484634267937,0.0,-1.141923154985089,-0.0032993842514373304,4.759265115419,82.27634258962877,1.490836709778708,0.00020037261064717046
0.0,-72215.49839180069,0.020991482530756403,3.94200786363454,0.0,0.0,-8.020452046989966e-05,4.385484634267937,0.0,-1.141923154985089,-0.0032993842514373304,4.759265115419,82.27634258962877,1.490836709778708,0.00020037262220732664
0.0,-72215.49831312256,0.02099147607528792,3.94200786363454,0.0,0.0,-8.020452046989966e-05,4.385484634267937,0.0,-1.141923154985089,-0.0032993842514373304,4.759265115419,82.27634258962877,1.490836709778708,0.00020037256058713635
0.0,-72215.49824255066,0.020991476169850618,3.94200786363454,0.0,0.0,-8.020452046989966e-05,4.385484634267937,0.0,-1.141923154985089,-0.0032993842514373304,4.759265115419,82.27634258962877,1.490836709778708,0.0002003725614897775
